{
    "stream_id": "EEG_OD6E40_0",
    "device_type": "eeg",
    "hia_id": "DAICKG",
    "data": "{\"sample\": [[-54.199, -42.969, -48.828, -51.758, 1688499008.9796667], [-47.363, -35.156, -45.898, -45.898, 1688499008.9796667], [-37.598, -31.738, -38.086, -28.32, 1688499008.9796667], [-36.133, -39.062, -32.715, -24.414, 1688499008.9796667], [-52.246, -51.758, -41.504, -50.781, 1688499008.9796667], [-59.57, -50.781, -47.852, -53.711, 1688499008.9796667], [-44.922, -44.922, -40.527, -40.527, 1688499008.9796667], [-36.621, -41.992, -36.133, -38.574, 1688499008.9796667], [-37.598, -38.574, -34.668, -32.715, 1688499008.9796667], [-42.969, -46.875, -43.945, -37.109, 1688499008.9796667], [-46.387, -51.27, -49.805, -44.434, 1688499008.9796667], [-44.434, -48.828, -44.434, -33.691, 1688499008.9796667], [-35.156, -49.316, -48.828, -29.297, 1688499008.9796667], [-36.621, -46.387, -49.805, -41.504, 1688499008.9796667], [-53.711, -46.875, -51.27, -51.27, 1688499008.9796667], [-54.688, -40.527, -52.734, -55.176, 1688499008.9796667], [-45.41, -33.691, -49.805, -41.016, 1688499008.9796667], [-39.551, -33.691, -40.039, -32.227, 1688499008.9796667], [-41.504, -34.668, -32.227, -28.32, 1688499008.9796667], [-39.551, -33.203, -31.738, -20.02, 1688499008.9796667], [-39.062, -31.738, -32.715, -25.879, 1688499008.9796667], [-34.668, -27.832, -25.391, -36.133, 1688499008.9796667], [-35.645, -34.18, -30.273, -30.273, 1688499008.9796667], [-40.527, -44.434, -41.992, -20.996, 1688499008.9796667], [-36.621, -42.48, -40.039, -31.25, 1688499008.9796667], [-41.016, -38.574, -39.062, -40.527, 1688499008.9796667], [-49.805, -40.527, -44.922, -38.086, 1688499008.9796667], [-47.852, -48.34, -48.828, -35.645, 1688499008.9796667], [-44.922, -47.363, -50.781, -37.598, 1688499008.9796667], [-43.945, -35.645, -45.898, -37.109, 1688499008.9796667], [-51.758, -31.738, -44.434, -41.016, 1688499008.9796667], [-50.293, -31.738, -54.199, -49.316, 1688499008.9796667], [-43.945, -35.645, -54.199, -45.41, 1688499008.9796667], [-44.922, -38.574, -41.504, -32.715, 1688499008.9796667], [-41.992, -38.086, -40.039, -44.922, 1688499008.9796667], [-46.875, -44.922, -42.969, -64.941, 1688499008.9796667], [-45.41, -45.41, -38.574, -51.758, 1688499008.9796667], [-37.598, -43.945, -41.504, -40.527, 1688499008.9796667], [-35.156, -50.781, -49.805, -32.227, 1688499008.9796667], [-41.992, -51.27, -46.387, -34.668, 1688499008.9796667], [-58.594, -45.41, -45.41, -51.758, 1688499008.9796667], [-48.34, -43.457, -46.875, -52.734, 1688499008.9796667], [-33.691, -40.039, -40.039, -35.156, 1688499008.9796667], [-31.738, -41.992, -39.551, -41.992, 1688499008.9796667], [-31.738, -41.016, -48.34, -52.734, 1688499008.9796667], [-39.062, -34.18, -50.781, -51.758, 1688499008.9796667], [-33.203, -35.156, -47.852, -43.945, 1688499008.9796667], [-24.902, -37.109, -42.969, -38.574, 1688499008.9796667], [-29.297, -38.086, -37.109, -38.574, 1688499008.9796667], [-35.645, -39.551, -33.691, -34.668, 1688499008.9796667], [-45.41, -41.504, -38.574, -43.945, 1688499008.9796667], [-41.016, -41.016, -37.109, -48.34, 1688499008.9796667], [-28.809, -37.598, -42.969, -40.039, 1688499008.9796667], [-28.32, -37.109, -47.363, -33.691, 1688499008.9796667], [-34.18, -41.504, -45.898, -34.668, 1688499008.9796667], [-40.527, -47.852, -49.316, -48.828, 1688499008.9796667], [-50.781, -48.828, -52.246, -52.734, 1688499008.9796667], [-45.898, -45.41, -44.434, -38.086, 1688499008.9796667], [-36.133, -43.945, -34.18, -33.691, 1688499008.9796667], [-42.969, -38.086, -42.969, -33.203, 1688499008.9796667], [-47.852, -39.062, -45.41, -41.504, 1688499008.9796667], [-47.852, -43.457, -42.969, -49.316, 1688499008.9796667], [-47.363, -43.945, -49.805, -44.434, 1688499008.9796667], [-45.898, -48.34, -52.246, -42.48, 1688499008.9796667], [-44.434, -46.387, -47.852, -37.109, 1688499008.9796667], [-42.969, -46.387, -41.992, -37.109, 1688499008.9796667], [-44.434, -51.27, -46.387, -49.805, 1688499008.9796667], [-47.852, -46.387, -44.434, -51.758, 1688499008.9796667], [-37.109, -43.457, -39.062, -41.992, 1688499008.9796667], [-26.855, -47.363, -48.34, -39.062, 1688499008.9796667], [-37.598, -48.34, -50.781, -42.48, 1688499008.9796667], [-53.223, -54.688, -47.363, -52.734, 1688499008.9796667], [-49.316, -61.035, -52.246, -57.129, 1688499008.9796667], [-37.598, -49.805, -51.27, -48.34, 1688499008.9796667], [-40.527, -44.434, -43.945, -31.738, 1688499008.9796667], [-47.363, -45.898, -42.48, -27.832, 1688499008.9796667], [-48.828, -45.898, -46.387, -42.48, 1688499008.9796667], [-45.898, -47.363, -47.852, -51.27, 1688499008.9796667], [-35.645, -41.504, -43.457, -38.086, 1688499008.9796667], [-33.691, -42.969, -43.945, -23.438, 1688499008.9796667], [-51.27, -46.387, -43.945, -40.039, 1688499008.9796667], [-53.223, -40.039, -41.016, -57.617, 1688499008.9796667], [-44.922, -42.969, -41.992, -50.293, 1688499008.9796667], [-37.109, -39.551, -35.156, -41.504, 1688499008.9796667], [-27.344, -34.18, -34.18, -35.645, 1688499008.9796667], [-35.156, -40.527, -41.992, -41.504, 1688499008.9796667], [-53.223, -49.805, -47.363, -55.664, 1688499008.9796667], [-54.688, -47.852, -45.898, -57.617, 1688499008.9796667], [-46.387, -40.039, -36.133, -38.574, 1688499008.9796667], [-40.039, -41.504, -31.738, -31.738, 1688499008.9796667], [-43.945, -43.457, -33.203, -35.156, 1688499008.9796667], [-49.805, -34.18, -38.086, -34.668, 1688499008.9796667], [-42.48, -23.926, -32.227, -41.016, 1688499008.9796667], [-40.527, -33.203, -29.297, -38.574, 1688499008.9796667], [-37.109, -41.016, -33.203, -30.273, 1688499008.9796667], [-36.133, -40.039, -41.992, -35.645, 1688499008.9796667], [-39.062, -36.621, -47.363, -41.016, 1688499008.9796667], [-41.992, -38.086, -43.457, -44.434, 1688499008.9796667], [-37.598, -34.18, -32.227, -39.551, 1688499008.9796667], [-29.785, -35.156, -29.785, -34.668, 1688499008.9796667], [-33.691, -44.434, -35.156, -36.133, 1688499008.9796667], [-35.645, -45.898, -35.645, -39.062, 1688499008.9796667], [-36.621, -37.109, -39.062, -47.852, 1688499008.9796667], [-38.574, -34.668, -43.457, -47.363, 1688499008.9796667], [-33.691, -39.551, -30.273, -23.926, 1688499008.9796667], [-41.504, -35.645, -28.32, -27.344, 1688499008.9796667], [-47.363, -36.621, -40.527, -49.316, 1688499008.9796667], [-48.34, -44.922, -40.527, -45.41, 1688499008.9796667], [-45.898, -41.992, -39.062, -47.363, 1688499008.9796667], [-37.109, -35.156, -41.504, -53.223, 1688499008.9796667], [-31.738, -35.156, -46.387, -55.176, 1688499008.9796667], [-32.715, -33.203, -41.016, -58.105, 1688499008.9796667], [-41.016, -35.156, -29.785, -50.293, 1688499008.9796667], [-41.016, -33.691, -25.879, -43.945, 1688499008.9796667], [-29.785, -32.715, -23.926, -35.156, 1688499008.9796667], [-31.25, -35.645, -29.297, -31.25, 1688499008.9796667], [-29.785, -36.621, -35.645, -38.574, 1688499008.9796667], [-41.016, -42.48, -36.133, -43.945, 1688499008.9796667], [-49.316, -47.363, -37.598, -43.457, 1688499008.9796667], [-34.668, -34.18, -42.969, -35.156, 1688499008.9796667], [-28.32, -28.32, -38.574, -20.996, 1688499008.9796667], [-32.227, -34.668, -32.715, -17.09, 1688499008.9796667], [-28.809, -37.109, -32.715, -31.25, 1688499008.9796667], [-31.738, -38.574, -33.203, -39.062, 1688499008.9796667], [-38.086, -42.48, -40.039, -29.785, 1688499008.9796667], [-32.715, -41.504, -43.457, -32.227, 1688499008.9796667], [-32.715, -45.41, -42.48, -45.898, 1688499008.9796667], [-45.41, -41.992, -34.18, -49.805, 1688499008.9796667], [-41.992, -36.133, -26.855, -50.293, 1688499008.9796667], [-35.156, -35.156, -30.273, -36.621, 1688499008.9796667], [-28.809, -35.156, -35.645, -23.926, 1688499008.9796667], [-15.625, -37.109, -29.297, -25.879, 1688499008.9796667], [-18.555, -37.598, -32.715, -27.832, 1688499008.9796667], [-27.344, -31.738, -32.715, -35.645, 1688499008.9796667], [-40.527, -31.25, -30.762, -41.016, 1688499008.9796667], [-43.945, -40.527, -36.133, -38.574, 1688499008.9796667], [-36.133, -43.457, -36.621, -36.621, 1688499008.9796667], [-37.109, -42.48, -36.621, -43.945, 1688499008.9796667], [-42.969, -42.969, -38.086, -42.48, 1688499008.9796667], [-41.016, -39.551, -31.738, -27.344, 1688499008.9796667], [-35.156, -42.48, -28.32, -35.156, 1688499008.9796667], [-35.645, -51.758, -36.133, -47.852, 1688499008.9796667], [-38.574, -41.992, -35.645, -44.434, 1688499008.9796667], [-44.922, -34.668, -29.785, -41.504, 1688499008.9796667], [-38.574, -40.039, -29.785, -39.062, 1688499008.9796667], [-30.762, -35.156, -36.133, -29.297, 1688499008.9796667], [-32.715, -34.668, -32.227, -19.531, 1688499008.9796667], [-31.738, -30.273, -25.391, -30.273, 1688499008.9796667], [-39.062, -30.273, -32.715, -42.969, 1688499008.9796667], [-45.898, -40.039, -41.504, -37.598, 1688499008.9796667], [-33.203, -35.645, -37.598, -22.949, 1688499008.9796667], [-26.855, -27.832, -30.273, -18.066, 1688499008.9796667], [-33.691, -34.668, -26.367, -25.391, 1688499008.9796667], [-37.598, -34.668, -30.273, -37.598, 1688499008.9796667], [-33.691, -32.227, -32.715, -39.551, 1688499008.9796667], [-32.227, -34.18, -29.297, -24.902, 1688499008.9796667], [-27.832, -35.156, -29.785, -12.695, 1688499008.9796667], [-26.855, -38.086, -32.715, -29.785, 1688499008.9796667], [-37.109, -39.551, -35.156, -41.504, 1688499008.9796667], [-41.016, -44.434, -36.621, -35.156, 1688499008.9796667], [-28.809, -40.527, -34.668, -35.156, 1688499008.9796667], [-11.23, -28.32, -27.344, -22.949, 1688499008.9796667], [-15.137, -31.738, -25.879, -16.602, 1688499008.9796667], [-34.18, -36.133, -29.785, -25.391, 1688499008.9796667], [-41.992, -32.227, -29.297, -26.855, 1688499008.9796667], [-27.344, -30.273, -28.809, -12.695, 1688499008.9796667], [-24.414, -32.227, -33.203, -21.484, 1688499008.9796667], [-40.527, -41.504, -32.227, -40.039, 1688499008.9796667], [-41.992, -47.363, -29.297, -39.062, 1688499008.9796667], [-38.086, -44.922, -35.645, -41.016, 1688499008.9796667], [-39.062, -43.945, -41.504, -41.016, 1688499008.9796667], [-40.527, -47.363, -36.133, -31.25, 1688499008.9796667], [-44.434, -48.828, -30.762, -34.18, 1688499008.9796667], [-54.688, -46.387, -39.062, -42.969, 1688499008.9796667], [-56.152, -41.016, -48.828, -47.363, 1688499008.9796667], [-46.387, -36.133, -48.828, -47.852, 1688499008.9796667], [-33.203, -35.645, -42.48, -34.18, 1688499008.9796667], [-31.738, -34.668, -33.203, -24.902, 1688499008.9796667], [-40.527, -41.504, -31.25, -32.227, 1688499008.9796667], [-40.527, -44.434, -31.25, -38.574, 1688499008.9796667], [-34.668, -38.086, -29.297, -29.785, 1688499008.9796667], [-32.227, -40.039, -34.18, -28.32, 1688499008.9796667], [-34.668, -44.434, -32.715, -33.203, 1688499008.9796667], [-42.969, -41.016, -35.645, -33.203, 1688499008.9796667], [-50.293, -43.457, -40.527, -42.969, 1688499008.9796667], [-43.457, -40.527, -38.086, -39.551, 1688499008.9796667], [-34.668, -37.598, -31.738, -26.855, 1688499008.9796667], [-29.785, -36.133, -28.32, -33.203, 1688499008.9796667], [-37.598, -30.762, -31.25, -51.27, 1688499008.9796667], [-45.41, -34.18, -34.18, -56.641, 1688499008.9796667], [-41.992, -38.086, -34.668, -41.016, 1688499008.9796667], [-42.969, -37.109, -29.297, -30.762, 1688499008.9796667], [-42.969, -31.738, -32.715, -37.598, 1688499008.9796667], [-51.27, -36.133, -35.645, -42.48, 1688499008.9796667], [-65.43, -46.387, -33.203, -61.035, 1688499008.9796667], [-74.707, -44.922, -36.133, -74.219, 1688499008.9796667], [-81.055, -38.086, -38.086, -74.219, 1688499008.9796667], [-76.172, -44.434, -29.297, -71.289, 1688499008.9796667], [-78.613, -41.504, -19.531, -82.52, 1688499008.9796667], [-98.145, -37.598, -25.391, -104.492, 1688499008.9796667], [-119.629, -49.316, -35.156, -110.84, 1688499008.9796667], [-109.863, -41.016, -31.738, -104.492, 1688499008.9796667], [-102.051, -39.062, -29.297, -101.074, 1688499008.9796667], [-125.0, -48.828, -33.691, -104.004, 1688499008.9796667], [-137.695, -52.246, -29.785, -128.906, 1688499008.9796667], [-142.09, -45.898, -20.508, -137.207, 1688499008.9796667], [-144.531, -43.457, -22.949, -125.977, 1688499008.9796667], [-140.625, -41.992, -30.762, -133.789, 1688499008.9796667], [-152.832, -36.621, -28.32, -145.02, 1688499008.9796667], [-160.645, -36.133, -25.879, -146.484, 1688499008.9796667], [-157.227, -42.969, -26.367, -151.855, 1688499008.9796667], [-158.203, -43.945, -25.391, -151.855, 1688499008.9796667], [-154.297, -41.992, -27.832, -152.344, 1688499008.9796667], [-148.926, -44.434, -27.832, -148.438, 1688499008.9796667], [-150.391, -50.293, -24.414, -149.414, 1688499008.9796667], [-132.812, -45.898, -25.391, -145.02, 1688499008.9796667], [-112.305, -43.945, -31.25, -129.395, 1688499008.9796667], [-107.91, -41.504, -35.645, -116.211, 1688499008.9796667], [-109.863, -45.41, -29.297, -105.957, 1688499008.9796667], [-104.004, -46.387, -16.113, -108.887, 1688499008.9796667], [-93.75, -45.41, -14.648, -104.004, 1688499008.9796667], [-83.984, -46.875, -28.32, -82.52, 1688499008.9796667], [-59.57, -38.086, -33.691, -66.406, 1688499008.9796667], [-46.875, -32.715, -30.762, -55.664, 1688499008.9796667], [-61.523, -39.062, -27.344, -52.246, 1688499008.9796667], [-59.57, -42.48, -22.949, -58.105, 1688499008.9796667], [-43.945, -47.852, -28.809, -49.805, 1688499008.9796667], [-38.574, -48.34, -29.785, -36.133, 1688499008.9796667], [-35.645, -54.199, -36.621, -39.062, 1688499008.9796667], [-34.668, -62.012, -41.016, -37.598, 1688499008.9796667], [-26.367, -57.129, -39.062, -35.156, 1688499008.9796667], [-12.695, -49.316, -33.691, -29.297, 1688499008.9796667], [-13.672, -45.41, -33.203, -22.949, 1688499008.9796667], [-11.23, -35.156, -34.18, -11.719, 1688499008.9796667], [-6.348, -32.715, -38.574, -8.301, 1688499008.9796667], [-13.184, -33.203, -47.363, -24.902, 1688499008.9796667], [-2.93, -32.715, -44.434, -17.578, 1688499008.9796667], [9.766, -33.203, -40.527, -7.324, 1688499008.9796667], [14.16, -33.691, -41.016, 0.977, 1688499008.9796667], [9.277, -35.156, -38.574, 6.836, 1688499008.9796667], [-5.371, -35.645, -41.992, -0.488, 1688499008.9796667], [5.859, -38.086, -48.34, -1.953, 1688499008.9796667], [22.949, -36.133, -42.48, 8.789, 1688499008.9796667], [25.879, -40.527, -35.645, 18.066, 1688499008.9796667], [12.695, -52.734, -35.645, 14.16, 1688499008.9796667], [2.93, -40.039, -42.48, 7.324, 1688499008.9796667], [13.672, -22.949, -45.41, 13.672, 1688499008.9796667], [24.902, -22.949, -39.062, 23.438, 1688499008.9796667], [26.367, -27.832, -44.922, 23.438, 1688499008.9796667], [23.926, -31.738, -55.176, 14.16, 1688499008.9796667], [21.484, -32.227, -52.734, 9.277, 1688499008.9796667], [18.555, -32.715, -49.805, 11.23, 1688499008.9796667], [18.555, -40.039, -44.434, 17.578, 1688499008.9796667], [20.996, -39.062, -37.598, 20.508, 1688499008.9796667], [15.625, -36.621, -33.203, 16.113, 1688499008.9796667], [7.324, -36.621, -40.527, 13.184, 1688499008.9796667]]}",
    "pipeline_entrance_timestamp": 1688499012804,
    "pipeline_entrance_performance_timestamp": 126385227.0707016,
    "username": "oleg@neurobrave",
    "customer_id": 1,
    "user_id": 4,
    "sensor_info": {
        "id": 6475,
        "device_type": "eeg",
        "sensor_id": "OD6E40",
        "stream_id": "EEG_OD6E40_0",
        "is_attached": true,
        "sensor_version": 1,
        "stream_state": "enabled",
        "channels_count": 4,
        "created_at": "2023-07-04T19:26:30.195Z",
        "channel_map": [
            "TP9",
            "AF7",
            "AF8",
            "TP10",
            "timestamp"
        ],
        "buffer_length": 1,
        "manufacturer_id": "file",
        "sampling_frequency": 256,
        "buffer_length_samples": 256,
        "buffer_length_seconds": 1
    },
    "input_processed": true,
    "is_valid_input": true,
    "invalid_reason": "",
    "dsp_enabled": true,
    "pipeline_id": "EEG_DEFAULT",
    "output": {
        "ICA": {
            "artifact_detected": 1,
            "artifact_power": 0.7137185207905631
        },
        "bad_channel": [
            0,
            0,
            0,
            0
        ],
        "brainwave_power": {
            "delta": [
                2.87432217311145,
                2.4288578226805657,
                3.301147969129887,
                4.012264286226669
            ],
            "theta": [
                2.7675319983612896,
                2.864817717141489,
                2.423085111696933,
                2.6709588801603212
            ],
            "alpha": [
                3.113604285054013,
                2.348098988440056,
                1.6017293113348041,
                2.819337954532791
            ],
            "mu_wave": [
                1.0361026179336852,
                0.8331766074157227,
                1.248013005625288,
                1.5067064999671211
            ],
            "SMR_wave": [
                1.1421354564030177,
                1.0329107916483078,
                1.1426544766759437,
                1.1488864879022227
            ],
            "beta_wave": [
                1.9241454422198898,
                2.8246225081418688,
                2.2735573038532673,
                2.2052823190234165
            ],
            "lo_gamma_wave": [
                2.877082356001103,
                2.94558757821451,
                3.667178997950159,
                1.8937198460500921
            ],
            "hi_gamma_wave": [
                2.325046346313129,
                2.5358248565324772,
                2.7298768180756294,
                1.4984522363807415
            ],
            "timestamp": 1688499012.8364878
        },
        "engagement_level_digital_media_upgraded_h-b": {
            "hard_decision": 2,
            "soft_decision_v1": 1.5490212440490723,
            "soft_decision_v2": 1.0980424880981445
        },
        "engagement_upgraded_index_h-b": {
            "hard_decision": 2,
            "soft_decision_v1": 1.901115894317627,
            "soft_decision_v2": 1.8022319078445435
        },
        "focus_attention_upgraded_index_h-b": {
            "hard_decision": 2,
            "soft_decision_v1": 1.5156590938568115,
            "soft_decision_v2": 1.0313180685043335
        }
    },
    "raw_data": {
        "clean": [
            [
                -4.327669036116633,
                -1.6936588652009852,
                -10.299079500935395,
                -0.7055509596729127
            ],
            [
                -2.793080734447478,
                5.313735881658687,
                -8.144599021463193,
                -1.3634756750573112
            ],
            [
                -4.095470498757781,
                7.049929630790244,
                -1.951597373584105,
                2.6075046508617903
            ],
            [
                -3.5709856591890707,
                -0.4169915375732911,
                3.281818920834894,
                5.35716981814187
            ],
            [
                -1.7650656207452673,
                -10.390023216113388,
                -2.8859033766683835,
                1.0209379300284525
            ],
            [
                -5.694313776931328,
                -8.89715497683942,
                -8.737300495768876,
                2.264682246539138
            ],
            [
                -1.4285284966004288,
                -4.615841674899427,
                -2.9310676920516157,
                2.6840644857519296
            ],
            [
                3.002160159848187,
                -2.273976180777416,
                0.8967619804506541,
                -0.12136579618762977
            ],
            [
                -1.8533704183038333,
                0.5546403142198599,
                1.7943892983275367,
                0.9690986224934036
            ],
            [
                -2.2874876097535015,
                -6.9961484305481525,
                -6.760416462391946,
                2.6448461361486686
            ],
            [
                0.9545818260832795,
                -10.379080847591194,
                -11.646145051403774,
                3.508199286628275
            ],
            [
                -2.697328724466756,
                -8.78880594268736,
                -7.0950620452362525,
                7.3601319476304035
            ],
            [
                2.711504096817501,
                -9.864766580687412,
                -12.055064998039239,
                6.997108381615778
            ],
            [
                8.468583406317933,
                -5.838295687762516,
                -11.975579706568485,
                3.669435607358343
            ],
            [
                -0.3780160533768723,
                -5.07362429438618,
                -12.234689955250195,
                4.0384462758158035
            ],
            [
                -0.14123956471344767,
                1.4588218062087508,
                -13.52113208687854,
                1.624747614514464
            ],
            [
                -2.312224218406899,
                6.555028199339384,
                -12.266952228079418,
                1.708568610370984
            ],
            [
                -4.172176343388134,
                5.38205225736878,
                -3.6301227946338397,
                1.0073513446331184
            ],
            [
                -7.191273265136399,
                4.243047619851658,
                4.0259227123675,
                3.6036175494354916
            ],
            [
                -6.661940070772183,
                5.491706478547196,
                4.306660939593723,
                10.15326243895663
            ],
            [
                1.4018926974703776,
                8.107781968812752,
                4.437748937806589,
                13.60728933150615
            ],
            [
                12.34465118118025,
                13.00893468213344,
                12.719737173456744,
                11.404789046100106
            ],
            [
                8.182671228489458,
                6.176943487515939,
                7.37182087297793,
                13.348952900383813
            ],
            [
                -0.6669391841305385,
                -4.6799766350294,
                -4.927582894909957,
                17.747896367333453
            ],
            [
                7.590960558529033,
                -2.0646597078927194,
                -2.3379631804148553,
                12.84442496342168
            ],
            [
                8.568854483753515,
                2.6578080212763644,
                -0.5749868484788268,
                10.173234906344138
            ],
            [
                -0.32850679699420215,
                0.6883413852226367,
                -6.450838529742461,
                12.48100800185781
            ],
            [
                -2.081736904570743,
                -7.68785925149656,
                -10.899006155942564,
                10.36531061752133
            ],
            [
                -0.7054003979361019,
                -6.946954756446977,
                -13.079284555734752,
                6.502128526591682
            ],
            [
                -0.519756267926484,
                4.650790397816664,
                -8.312048423886145,
                6.018180512518595
            ],
            [
                -4.392896011177997,
                9.156493592377982,
                -6.2717041006897105,
                6.9551190715078945
            ],
            [
                0.16186769617814445,
                9.626015677295882,
                -15.584716553744911,
                2.453889734653151
            ],
            [
                0.8978206668028337,
                4.8662061192004735,
                -16.405677510761492,
                -0.5399516883741935
            ],
            [
                -7.385678643507013,
                0.826906719456618,
                -4.779512222023823,
                3.171929258147671
            ],
            [
                1.2920211503874808,
                2.188330141541132,
                -2.473707236117484,
                -1.9684483636978298
            ],
            [
                6.696459223053418,
                -3.0843854685095105,
                -3.8988044865186886,
                -9.339355612680702
            ],
            [
                -0.044105681184258616,
                -4.819307339134859,
                -0.7041594338995338,
                -6.244848515403362
            ],
            [
                0.2511355901202102,
                -4.496557868429191,
                -4.733752043739001,
                -4.2554751396422805
            ],
            [
                -2.5606989341532747,
                -12.130933269686436,
                -13.803311714831858,
                -2.414905164117414
            ],
            [
                -4.8176977721381835,
                -11.924105893854362,
                -9.715470361672992,
                0.7738377315473284
            ],
            [
                -5.391850384827423,
                -3.6285059468035605,
                -6.393829117376957,
                3.389589437843606
            ],
            [
                2.6567527976601863,
                -2.01063918348585,
                -8.18144663509007,
                -0.2978789864291119
            ],
            [
                3.9638310928866876,
                -0.6200844799408767,
                -3.297175969120687,
                0.8766333807113759
            ],
            [
                8.296675190004981,
                -2.211442144768688,
                -2.461039348509015,
                -3.033420561514455
            ],
            [
                13.058636614194185,
                -0.5118120332294773,
                -10.55343356676567,
                -7.920733578761867
            ],
            [
                8.37615323194299,
                6.725594193000022,
                -12.60801805757068,
                -3.6970691020821222
            ],
            [
                9.546294764003074,
                5.037072844357505,
                -10.364929938744584,
                -1.648878219764367
            ],
            [
                12.437838797691388,
                2.262049128586837,
                -6.273254766173314,
                -2.9286400820637417
            ],
            [
                9.505401382700922,
                1.5073008925653202,
                -0.19930310589655953,
                -1.1304637918443703
            ],
            [
                4.159467871757679,
                0.1945754325400526,
                3.365284664937187,
                4.007546530526543
            ],
            [
                3.1897986107207785,
                -0.42188157672293114,
                -0.23108621329291346,
                5.544138619878376
            ],
            [
                8.36013713663065,
                0.18409122566951952,
                1.3474808355688876,
                2.1036232653787845
            ],
            [
                12.348153923829713,
                2.353130301961343,
                -5.714837015433753,
                0.2996329597001146
            ],
            [
                9.556724240222978,
                2.343634517055006,
                -10.588716224995395,
                2.6144442679799464
            ],
            [
                5.583144333738311,
                -1.764704113588615,
                -8.84776036838882,
                3.9567404952457172
            ],
            [
                8.478396843490026,
                -6.708246660293741,
                -10.91375308376005,
                1.1598093318163465
            ],
            [
                2.398193631242428,
                -7.049994349949273,
                -13.233187244355927,
                2.3853657526181404
            ],
            [
                -2.9296445089956,
                -5.183638574700067,
                -6.914884536569156,
                4.479450292703658
            ],
            [
                1.356649037117279,
                -4.551185630242832,
                2.5376602956367904,
                2.1385470585952437
            ],
            [
                -3.6142777720481787,
                1.5912318527835438,
                -5.978506589523128,
                4.91959791717481
            ],
            [
                -2.185271059775305,
                1.574407644934353,
                -7.49615169886045,
                4.379018517323435
            ],
            [
                2.3732303521321176,
                -2.1278801318220797,
                -4.388309161352794,
                2.1715575926683846
            ],
            [
                -0.8072095284057226,
                -3.1734901066849344,
                -11.761094911770227,
                2.54209267540775
            ],
            [
                -2.7135872399851677,
                -8.080806400781425,
                -14.695278496668077,
                0.35108614476641165
            ],
            [
                -5.147100388429172,
                -6.720074506946161,
                -10.87142805307467,
                0.9302120696446292
            ],
            [
                -3.361461926308457,
                -6.671350121038796,
                -4.964523303819879,
                1.3244273232189734
            ],
            [
                2.8960698096823068,
                -10.380830219534856,
                -8.229829092173974,
                -1.876954387995312
            ],
            [
                1.3145032665978467,
                -5.218764845230944,
                -6.008185554371247,
                -1.5721152126757885
            ],
            [
                3.9774383085138787,
                -3.5166156793770678,
                -1.8181816827043242,
                -1.740309742179801
            ],
            [
                10.138942061063432,
                -8.044513517728541,
                -11.694854434074283,
                -3.8419096172232194
            ],
            [
                4.064160550127035,
                -8.312128630910468,
                -13.452961881983397,
                -1.5204767268740145
            ],
            [
                -2.6632249621167974,
                -13.308042549006903,
                -8.733370133589585,
                -0.835129874040895
            ],
            [
                1.692724348304147,
                -19.58681998048185,
                -13.55069537113555,
                -4.678160328406696
            ],
            [
                5.529892135531544,
                -9.55439530399919,
                -13.727546642983334,
                -5.578404246889955
            ],
            [
                -5.852822604570649,
                -5.4680261515374795,
                -7.639202306603458,
                0.6300101618099085
            ],
            [
                -12.243553573810136,
                -6.8643628402058425,
                -6.109065915602169,
                5.083454915346586
            ],
            [
                -3.4791125660534368,
                -5.309891714122093,
                -8.519647294105443,
                3.01224203603309
            ],
            [
                4.339745712535232,
                -6.031978291206895,
                -9.269478345930152,
                0.2329448482778913
            ],
            [
                5.72535972561338,
                -1.5204708345489557,
                -6.171648103766116,
                2.514763019387174
            ],
            [
                -0.24218247992503206,
                -4.189232469542115,
                -7.818454656181974,
                7.423467400883169
            ],
            [
                -4.94892713209887,
                -5.6511579146763875,
                -5.9354306875661065,
                6.648514508439686
            ],
            [
                2.422709015353597,
                2.113818598650254,
                -1.6423718734873312,
                0.5348715261342382
            ],
            [
                3.7378510606403377,
                -1.8777559754921573,
                -3.6403014122213793,
                -0.7300287163288224
            ],
            [
                4.134549160776255,
                0.4132589666814095,
                2.110801352711429,
                -1.0591467197081688
            ],
            [
                7.185562405537392,
                4.763998080088129,
                2.10464262112448,
                -3.4547895772914075
            ],
            [
                4.752074092940315,
                -0.7656805127076949,
                -4.920559249939189,
                -2.701072766343667
            ],
            [
                -0.549689760170657,
                -8.10386865075619,
                -8.42419063580639,
                -1.166602516896181
            ],
            [
                -1.3932513478479276,
                -6.056434549434082,
                -6.868283223406442,
                -2.3555628577912495
            ],
            [
                -6.084126739383157,
                -0.21768662777403125,
                0.9961941332431894,
                0.7143208229567506
            ],
            [
                -5.7340379625315805,
                -2.59413230756514,
                4.513786849932431,
                0.1760710897490192
            ],
            [
                -6.475649695346849,
                -4.066270236086657,
                3.5116908859467486,
                0.6485903833646494
            ],
            [
                -7.973421403463513,
                5.873616222711675,
                -0.7331784828443365,
                6.499817617115903
            ],
            [
                4.184903900084949,
                16.862090826127343,
                5.832866797782134,
                6.0942443227064444
            ],
            [
                3.6902904014120086,
                7.213150217777882,
                8.40481649817498,
                5.526977843415325
            ],
            [
                0.9130845070637467,
                -1.541276461901468,
                3.592547870468013,
                6.211160302460845
            ],
            [
                5.2171248153823555,
                -0.05854574193335882,
                -4.709608177190561,
                4.9308848116543285
            ],
            [
                6.5240548039398965,
                4.003148361618537,
                -9.460953153086365,
                4.767832116284531
            ],
            [
                6.095213874413277,
                2.918225782647236,
                -5.189069914154373,
                4.4249312502905065
            ],
            [
                6.764546582673558,
                6.2582234219231605,
                5.496065367430154,
                4.728565907836933
            ],
            [
                9.294569256466405,
                4.479419465468743,
                7.165242527757208,
                3.116305693252471
            ],
            [
                6.5803905045174185,
                -4.617470763611848,
                1.9685886633599918,
                3.1166137302490724
            ],
            [
                7.2915749165620625,
                -5.67646796716673,
                1.8694664270503252,
                3.464377041386082
            ],
            [
                12.56119429904522,
                4.061619572144295,
                -0.6338901842599234,
                2.3531764352886393
            ],
            [
                10.25850978214523,
                6.44948133278719,
                -5.080043949391515,
                2.4122499392937438
            ],
            [
                0.42551759915608756,
                -0.6697684215038693,
                5.951220166044792,
                7.756384374616258
            ],
            [
                -2.3770750574622683,
                3.9976156599233468,
                8.637169976717239,
                10.498528071407982
            ],
            [
                4.459428136756784,
                4.950830866458405,
                -1.71266232715009,
                4.1352637728618715
            ],
            [
                0.24163732199781918,
                -3.8426413755145647,
                -2.186742946013189,
                4.056809866827973
            ],
            [
                3.1833404866947723,
                -0.8367062251436815,
                -0.6486436319542492,
                2.7181797352461405
            ],
            [
                10.382043181075543,
                5.75763137692085,
                -3.3232810263182415,
                -5.097042515530642
            ],
            [
                12.599244465656033,
                5.278378499184694,
                -8.667635964738402,
                -10.927542276783399
            ],
            [
                13.153178759541703,
                7.464020063271345,
                -3.0726825166544494,
                -11.974305046483257
            ],
            [
                1.9410252254319649,
                5.068639672305817,
                7.732458010166656,
                -7.741479924794774
            ],
            [
                -1.2303943374844888,
                6.05170912150518,
                11.174525397726875,
                -5.292643983020068
            ],
            [
                4.141298644359162,
                6.137325808118115,
                12.270393896172969,
                -3.7074840546543557
            ],
            [
                3.3711147683975344,
                3.3129104243191465,
                7.001035401875848,
                1.0527712730243408
            ],
            [
                11.222335729790412,
                3.307363852003858,
                1.5872467591117534,
                1.58043603908547
            ],
            [
                6.6940637918831944,
                -1.5330861382141823,
                2.079758507440795,
                4.450236675295307
            ],
            [
                -0.11469754038863123,
                -6.189476741930917,
                0.8329050620562777,
                6.771669338520214
            ],
            [
                6.761867092417461,
                5.812571935570746,
                -5.67494304043623,
                5.517925520039944
            ],
            [
                4.671237977295487,
                10.390233507377058,
                -2.5143918962630245,
                9.302887246605447
            ],
            [
                1.090010930768896,
                4.091738133235838,
                3.39226395449049,
                13.609415201398434
            ],
            [
                13.681988164600874,
                3.044820440424273,
                4.734283558052756,
                10.72854165928019
            ],
            [
                17.369024837296124,
                2.5851967820071224,
                5.214113615435095,
                11.05075786445196
            ],
            [
                7.711253220259096,
                -1.8237578182212086,
                -2.106057892751908,
                16.258494156493626
            ],
            [
                12.09088822928675,
                -0.9984061530332733,
                -5.669080189871178,
                12.597641001086002
            ],
            [
                16.709836628229247,
                -4.202508374495572,
                -4.016395136243223,
                4.605497811627873
            ],
            [
                7.015224012838747,
                -0.32856796163187885,
                4.722517953008572,
                4.3873829997054425
            ],
            [
                8.25636485413203,
                5.199635399021482,
                11.729075080226533,
                1.2230007604402489
            ],
            [
                4.475015486221318,
                4.5632175186655655,
                6.757911100588675,
                1.8412920890754443
            ],
            [
                2.581593623328753,
                3.310998766643567,
                0.18045708650609926,
                4.404943614054691
            ],
            [
                15.946365114936153,
                1.3854688956476529,
                6.55490132975184,
                2.674196674188794
            ],
            [
                18.784990865114846,
                1.773072236830858,
                3.980767479081729,
                7.813546880216146
            ],
            [
                20.117525502279626,
                9.171145855242543,
                5.461400966062365,
                12.444666394640342
            ],
            [
                13.209014083731851,
                10.612620372903267,
                8.332267499192975,
                14.787959592114715
            ],
            [
                6.199151453563838,
                0.7897990769769647,
                2.4358301735789945,
                12.813873548691818
            ],
            [
                8.177822522826219,
                -3.0266365928611814,
                1.0944988888438534,
                7.594972746761533
            ],
            [
                9.095867359692484,
                -1.7618165635766765,
                1.371570134641864,
                2.5996433644658237
            ],
            [
                2.340500510791774,
                -2.3868769712581335,
                -0.22440902880898994,
                2.9638170099264802
            ],
            [
                -3.4431514656473516,
                -0.1445425917758254,
                4.991831173485127,
                8.587838314244884
            ],
            [
                6.086834668755664,
                -2.515849607894165,
                8.94669683290788,
                5.287974834046759
            ],
            [
                11.427476502060449,
                -10.907974231281631,
                1.9864887488492051,
                -0.24065753836461745
            ],
            [
                7.985111173058577,
                -1.2199854911794819,
                2.399390858615839,
                2.5461753770310493
            ],
            [
                2.180943410790092,
                6.1866555358664845,
                8.338945615018913,
                6.144800600846261
            ],
            [
                3.7599093636152032,
                0.09095066489431725,
                7.641305211273194,
                2.7234180428800903
            ],
            [
                4.800565174976003,
                3.944973713169083,
                0.30275592038232446,
                4.163255962485172
            ],
            [
                0.5527542098848617,
                4.084253056551615,
                3.8730584117527433,
                11.107855558662168
            ],
            [
                9.871640896344363,
                9.746890455440866,
                11.92935525559476,
                10.62195195346385
            ],
            [
                12.283439559030592,
                11.226347436426906,
                6.0295611729014285,
                9.895820799437178
            ],
            [
                3.095156094757459,
                1.1028932292220164,
                -3.1035437274844258,
                12.374759702917709
            ],
            [
                4.684717600332258,
                3.8093050737213523,
                -0.822108056106412,
                13.369960270440945
            ],
            [
                7.539776995573833,
                11.09151601974418,
                5.991925473606585,
                13.958495853671955
            ],
            [
                6.670414718737187,
                5.162209362364427,
                10.770757898163918,
                13.969295768210934
            ],
            [
                11.749071298354046,
                6.527674365909329,
                8.179228925653817,
                12.80988769974896
            ],
            [
                16.347448656687614,
                9.073736425502094,
                5.838367389887302,
                11.706915169405463
            ],
            [
                8.51861038324989,
                5.7085919334940405,
                7.896960142865184,
                14.930652672327483
            ],
            [
                5.110724239078284,
                3.546861334721698,
                6.267511248570441,
                17.54424107849872
            ],
            [
                15.542535267223208,
                2.0536192899887546,
                4.720612756709581,
                12.07864415948142
            ],
            [
                14.489739130425471,
                1.9868389698043538,
                3.6256152206411896,
                11.672244931486915
            ],
            [
                7.74571220982902,
                -3.327277102779221,
                1.745599394219302,
                14.532206473770339
            ],
            [
                16.236862242051945,
                0.015060421589039863,
                3.155024522214737,
                9.963681763406854
            ],
            [
                22.544341487654982,
                10.509234320292018,
                8.830164771552234,
                8.31268923508023
            ],
            [
                17.425190478980678,
                6.907035228473735,
                10.11784468729046,
                13.169386374673463
            ],
            [
                10.30492771589153,
                4.3238205219817525,
                7.955967949450848,
                19.039029795248158
            ],
            [
                6.699262924981097,
                8.869017387597497,
                9.059293687227337,
                22.746591217114073
            ],
            [
                11.568320066731488,
                9.337004192424331,
                8.116776400843744,
                24.88367789269051
            ],
            [
                18.549521864811258,
                7.998626904973179,
                4.315408374134435,
                21.07550749606344
            ],
            [
                13.222833577721296,
                0.36072039033016434,
                6.869289090414804,
                15.781950240370962
            ],
            [
                8.935472251505644,
                -5.927167090975112,
                9.386418627411123,
                13.288942685651513
            ],
            [
                11.930433598981292,
                -3.6246089940098414,
                2.9051469067465234,
                10.21484832440268
            ],
            [
                7.964808053940478,
                -3.1019140321878287,
                -3.3911918817081954,
                6.539194491311145
            ],
            [
                -1.14035384562141,
                -7.680916970908386,
                0.8621634171703034,
                6.911847415404626
            ],
            [
                -2.12602818405136,
                -8.701990818212975,
                6.660510924831268,
                7.573528615570455
            ],
            [
                -5.116414827045423,
                -5.15720839002943,
                -0.5769279558921152,
                7.71492069161531
            ],
            [
                -4.762101853485867,
                0.49010338628743444,
                -10.076935181577241,
                5.556481282844137
            ],
            [
                1.6800477244907093,
                4.868161324114735,
                -10.563019928944541,
                0.9821375812691366
            ],
            [
                2.9629599210738133,
                3.5476658896749553,
                -5.955976193475173,
                0.02211148182963285
            ],
            [
                -0.07203033582109131,
                3.8408450516939654,
                2.662740601033409,
                3.76751009498788
            ],
            [
                -0.9784634291181624,
                -1.7973160198052751,
                5.768845633404178,
                6.133886766987646
            ],
            [
                4.41022781372977,
                -3.9084477221108305,
                6.557132883428834,
                6.412119032271354
            ],
            [
                6.859735445660412,
                1.9214440609545462,
                8.011373677958932,
                11.009251688757804
            ],
            [
                8.70584195405043,
                -0.12195626053923725,
                3.041349401854563,
                11.742848203681014
            ],
            [
                8.615496299454271,
                -4.159749615077098,
                4.850215985815232,
                9.749906348015926
            ],
            [
                2.5912043437753938,
                -0.39577988762706473,
                2.2532653001081795,
                12.54904976041443
            ],
            [
                1.7846021312201872,
                -1.8463927618688847,
                -1.6753340785442088,
                10.795992451160911
            ],
            [
                3.4990769198753617,
                0.30533762823662514,
                0.016461180853643453,
                7.9172327096001816
            ],
            [
                2.519041893161738,
                1.7498300322485139,
                4.935393266297686,
                8.60250076321684
            ],
            [
                9.984251778514025,
                3.6072239768662544,
                8.731133062062094,
                5.429249413156014
            ],
            [
                13.636022052298376,
                10.720416374697908,
                7.47826241017252,
                1.457836357899641
            ],
            [
                9.223382637267349,
                7.818984960652365,
                5.045539482954146,
                0.2662469817244073
            ],
            [
                1.9232655764995115,
                2.2842543697710416,
                2.9896346536528187,
                2.7136474916192843
            ],
            [
                -5.539403638526422,
                2.2756887342252323,
                7.411875461545094,
                4.993714117281466
            ],
            [
                -1.7731597428573382,
                8.142326462968102,
                4.471003350485506,
                4.1976567599457395
            ],
            [
                -4.359921183812931,
                4.4894148636733915,
                2.255378087319504,
                6.199668301303009
            ],
            [
                -3.1061632270869404,
                -3.862839362505089,
                6.528102210493665,
                5.875291767493008
            ],
            [
                -2.2093485162709725,
                -1.583424637125135,
                4.38210220909772,
                3.9397122158525777
            ],
            [
                -5.084391782993673,
                4.562877945928837,
                1.7651618884329183,
                6.052505919787163
            ],
            [
                -2.0792577623547794,
                -3.2166985516441553,
                9.176048333849028,
                4.62804528699143
            ],
            [
                3.5156626046395485,
                -0.06606859266128273,
                19.154438756251928,
                1.4746705140529444
            ],
            [
                2.7958889281121277,
                5.614854067542746,
                15.003076038655022,
                0.6537808901689226
            ],
            [
                -6.164924547841411,
                -5.825140556176024,
                5.505699164593375,
                6.714421533267184
            ],
            [
                -3.003452195731828,
                0.8305785164168449,
                7.34082473389045,
                3.712918228375182
            ],
            [
                0.24524211819546238,
                1.4239773541025802,
                8.472035905038657,
                0.21186972772564583
            ],
            [
                -10.106465843475423,
                -8.017861051764367,
                4.39009152170158,
                9.752695125642424
            ],
            [
                -4.784993665069427,
                -9.479717255440175,
                10.179182145918885,
                5.420893680604318
            ],
            [
                -1.4882809685227971,
                -2.799085356977486,
                19.776391739143946,
                4.865878953295533
            ],
            [
                -7.359373899895569,
                -1.8722810929036005,
                15.877744403140156,
                9.853905234351018
            ],
            [
                -2.8244978256625424,
                -0.7089168050238293,
                7.774373428117736,
                1.8460725164511382
            ],
            [
                -3.03098644811635,
                5.259393879128856,
                10.791377244905826,
                2.8715086329764667
            ],
            [
                -5.407972186561635,
                5.603469722433529,
                13.093828008095814,
                6.04055447290514
            ],
            [
                -1.2057725218221562,
                -1.4120583662878778,
                12.433004485975303,
                0.7898745852574777
            ],
            [
                -1.090982702655579,
                -2.9134543792619514,
                12.9032296508677,
                0.5670442020304922
            ],
            [
                1.043818405470711,
                -1.5043358721863411,
                9.938659685338694,
                -2.908259552662901
            ],
            [
                2.20567697274802,
                -4.608722705988222,
                9.301010020379918,
                -4.523468120834795
            ],
            [
                2.5307996919386593,
                -10.345607816023584,
                12.836564468474094,
                -3.865272014526629
            ],
            [
                9.158295071337108,
                -6.701393804599022,
                11.136816959555379,
                -11.555262166372795
            ],
            [
                11.45582958063561,
                -6.223554650981912,
                3.8577467355483295,
                -16.229879569552587
            ],
            [
                6.934641098912662,
                -4.099312895257728,
                -0.8421820130744422,
                -12.356979221581334
            ],
            [
                2.1810336913013506,
                -7.826284504506463,
                5.678160472547484,
                -4.656302066496041
            ],
            [
                7.921866868037145,
                -7.725746696519366,
                19.899457090144352,
                -5.921907460839217
            ],
            [
                10.653436037360166,
                -6.536892574846757,
                21.56839941328702,
                -7.977850212526455
            ],
            [
                3.672131582179273,
                -9.242746405069681,
                6.701885892293461,
                -4.83860477032061
            ],
            [
                7.4312054382853425,
                -1.507695922500547,
                0.3162966487000922,
                -10.428200704182608
            ],
            [
                8.940214171327321,
                3.824065291705632,
                3.2075232550606003,
                -10.493034844315563
            ],
            [
                0.11848607547369028,
                -0.9790750462325288,
                8.111726702986532,
                1.2372808274810172
            ],
            [
                3.656626967533459,
                -2.898846256934695,
                13.949003385999674,
                -0.41478173235198
            ],
            [
                6.380327621428359,
                -8.790788487685772,
                7.588478658880014,
                -5.3669540694506
            ],
            [
                2.6854495686138815,
                -9.9565721104715,
                5.960007205751575,
                -1.5605529132557232
            ],
            [
                3.9651521447389526,
                -15.270574273275544,
                -0.35134817488512127,
                -5.048174374524205
            ],
            [
                2.7837640671456922,
                -22.828488306313208,
                -4.500788521418525,
                -5.141800447027648
            ],
            [
                5.768716801116985,
                -17.7364172554178,
                -2.3455253338777093,
                -7.339699642715821
            ],
            [
                10.547011694599698,
                -10.264203276739629,
                2.6974154698498367,
                -10.519211510056325
            ],
            [
                7.20099370465752,
                -6.36927024720563,
                3.1747618009517784,
                -6.3789030642310856
            ],
            [
                3.175844156285244,
                3.5480292580116206,
                1.8736355551787747,
                -1.8441005267047608
            ],
            [
                3.026420102023425,
                6.189329199390249,
                -2.327544805308961,
                -2.765108642436897
            ],
            [
                5.037247574361851,
                7.732895573795357,
                -9.160848297053196,
                -7.134000025640835
            ],
            [
                7.2830475622406015,
                7.3847132401725695,
                -7.036802981642372,
                -8.843709509434156
            ],
            [
                9.546732783906409,
                5.859037606945321,
                -4.128726097407605,
                -10.28603522507564
            ],
            [
                7.820068782790006,
                4.8765107599467505,
                -5.093784591040153,
                -8.568298559785365
            ],
            [
                3.0319327507099656,
                3.4780154273244026,
                -2.5877635738527314,
                -2.3310195793432142
            ],
            [
                -2.0016933697465875,
                4.7369194318187535,
                -4.323135921897788,
                2.8706605102945155
            ],
            [
                2.8046760045043393,
                2.31393486086936,
                -10.653793288089284,
                -4.484990501443224
            ],
            [
                7.320769842762523,
                3.0258190461011076,
                -5.988559009683793,
                -7.767756179477009
            ],
            [
                5.601811307386246,
                -1.9660827189995196,
                0.27086816679490955,
                -3.7748233494031074
            ],
            [
                0.4721076188154837,
                -13.223959619195137,
                1.1845457879535388,
                1.9723565198860533
            ],
            [
                -2.7469204508785214,
                0.8968672830241793,
                -4.27787553129132,
                4.23130059290891
            ],
            [
                -0.826869365334306,
                17.522956667180253,
                -7.654461172291814,
                1.6011482215690174
            ],
            [
                1.348209407780206,
                16.42854997326713,
                -2.3599966988011887,
                1.0309304507483732
            ],
            [
                0.9334363498899867,
                11.501233835300267,
                -8.26265782834787,
                -0.5503316145266401
            ],
            [
                1.8290617726838245,
                8.504687322606271,
                -17.641168338093735,
                -4.700495668404473
            ],
            [
                2.871638885823967,
                8.685907190935744,
                -14.553978167214183,
                -4.7498221277057615
            ],
            [
                0.9320132053483945,
                8.176735573414923,
                -11.645359120049996,
                -1.602709398768352
            ],
            [
                -0.9722994783518217,
                0.08356446130276662,
                -7.014805150837169,
                1.8129742486700535
            ],
            [
                0.025406988144406673,
                0.6382185870491526,
                -0.5853783063885825,
                2.867413780759815
            ],
            [
                -0.14073252223267452,
                3.7019987720304033,
                4.409143839933298,
                4.817200445071965
            ],
            [
                -4.253840211531968,
                4.285322000303717,
                -2.353317430596119,
                7.171535516455177
            ]
        ]
    },
    "performance": {
        "line_noise_filter": "3.617",
        "ICA": "12.515",
        "bad_channel": "2.753",
        "brainwave": "10.404",
        "engagement_level_digital_media_upgraded_h-b": "17.556",
        "engagement_upgraded_index_h-b": "19.848",
        "focus_attention_upgraded_index_h-b": "20.058",
        "processing_handler": "87.807"
    },
    "input_attached": true,
    "pipeline_exit_timestamp": 1688499012899,
    "pipeline_exit_performance_timestamp": 126385322.61312103,
    "processing_time": "95.54"
}